com/codecorn/invoice/entity/VirtualAccount.class
com/codecorn/invoice/entity/VirtualAccountType.class
com/codecorn/invoice/entity/StatusRecord.class
com/codecorn/invoice/InvoceManagementApplication.class
com/codecorn/invoice/entity/Invoice.class
com/codecorn/invoice/entity/PaymentProvider.class
com/codecorn/invoice/entity/InvoiceType.class
com/codecorn/invoice/entity/BaseEntity.class
com/codecorn/invoice/entity/Payment.class
