/home/hermandev/Workspace/JAVA/invoce-management/src/main/java/com/codecorn/invoice/entity/Invoice.java
/home/hermandev/Workspace/JAVA/invoce-management/src/main/java/com/codecorn/invoice/entity/InvoiceType.java
/home/hermandev/Workspace/JAVA/invoce-management/src/main/java/com/codecorn/invoice/entity/VirtualAccountType.java
/home/hermandev/Workspace/JAVA/invoce-management/src/main/java/com/codecorn/invoice/entity/VirtualAccount.java
/home/hermandev/Workspace/JAVA/invoce-management/src/main/java/com/codecorn/invoice/InvoceManagementApplication.java
/home/hermandev/Workspace/JAVA/invoce-management/src/main/java/com/codecorn/invoice/entity/BaseEntity.java
/home/hermandev/Workspace/JAVA/invoce-management/src/main/java/com/codecorn/invoice/entity/PaymentProvider.java
/home/hermandev/Workspace/JAVA/invoce-management/src/main/java/com/codecorn/invoice/entity/StatusRecord.java
/home/hermandev/Workspace/JAVA/invoce-management/src/main/java/com/codecorn/invoice/entity/Payment.java
